models/pmicJEDEC301-2/pmicJEDEC301-2-1-4April2024.vcd
$date
     Apr 08, 2024       09:36:23
$end

$version
 SystemC 3.0.0_pub_rev_20231124-Accellera --- Mar 17 2024 14:22:01
$end

$timescale
     1 ps
$end

$scope module SystemC $end
$var wire   32  aaaaa  bulk_voltage [31:0]  $end
$var wire    1  aaaab  vren       $end
$var wire    1  aaaac  gsi_n       $end
$var wire    1  aaaad  pwrgd       $end
$var wire    1  aaaae  wrb       $end
$var wire    8  aaaaf  addr_in [7:0]  $end
$var wire    8  aaaag  data_in [7:0]  $end
$var wire   32  aaaah  railA_out [31:0]  $end
$var wire   32  aaaai  railB_out [31:0]  $end
$var wire   32  aaaaj  railC_out [31:0]  $end
$var wire   32  aaaak  v1p8_out [31:0]  $end
$var wire   32  aaaal  v1p0_out [31:0]  $end
$var wire    8  aaaam  dac_cmd [7:0]  $end
$var wire    8  aaaan  temp [7:0]  $end
$var wire    8  aaaao  reg_data_out [7:0]  $end
$var wire    1  aaaap  rail_en       $end
$var wire    1  aaaaq  railA_pwrgd       $end
$var wire    1  aaaar  railB_pwrgd       $end
$var wire    1  aaaas  railC_pwrgd       $end
$var wire    1  aaaat  railA_zero       $end
$var wire    1  aaaau  railB_zero       $end
$var wire    1  aaaav  railC_zero       $end
$upscope $end
$enddefinitions  $end

$comment
All initial values are dumped below at time 0 sec = 0 timescale units.
$end

$dumpvars
b110010 aaaaa
0aaaab
0aaaac
0aaaad
0aaaae
b0 aaaaf
b0 aaaag
b0 aaaah
b0 aaaai
b0 aaaaj
b0 aaaak
b0 aaaal
b0 aaaam
b1101001 aaaan
b0 aaaao
0aaaap
0aaaaq
0aaaar
0aaaas
0aaaat
0aaaau
0aaaav
$end

#1000
b1100100 aaaaa

#2000
b10010110 aaaaa

#3000
b11001000 aaaaa

#4000
b11111010 aaaaa

#5000
b100101100 aaaaa

#6000
b101011110 aaaaa

#7000
b110010000 aaaaa

#8000
b111000010 aaaaa

#9000
b111110100 aaaaa

#10000
b1000100110 aaaaa

#11000
b1001011000 aaaaa

#12000
b1010001010 aaaaa

#13000
b1010111100 aaaaa

#14000
b1011101110 aaaaa

#15000
b1100100000 aaaaa

#16000
b1101010010 aaaaa

#17000
b1110000100 aaaaa

#18000
b1110110110 aaaaa

#19000
b1111101000 aaaaa

#20000
b10000011010 aaaaa

#21000
b10001001100 aaaaa

#22000
b10001111110 aaaaa

#23000
b10010110000 aaaaa

#24000
b10011100010 aaaaa

#25000
b10100010100 aaaaa

#26000
b10101000110 aaaaa

#27000
b10101111000 aaaaa

#28000
b10110101010 aaaaa

#29000
b10111011100 aaaaa

#30000
b11000001110 aaaaa

#31000
b11001000000 aaaaa

#32000
b11001110010 aaaaa

#33000
b11010100100 aaaaa

#34000
b11011010110 aaaaa

#35000
b11100001000 aaaaa

#36000
b11100111010 aaaaa

#37000
b11101101100 aaaaa

#38000
b11110011110 aaaaa

#39000
b11111010000 aaaaa

#40000
b100000000010 aaaaa

#41000
b100000110100 aaaaa

#42000
b100001100110 aaaaa

#43000
b100010011000 aaaaa

#44000
b100011001010 aaaaa

#45000
b100011111100 aaaaa

#46000
b100100101110 aaaaa

#47000
b100101100000 aaaaa

#48000
b100110010010 aaaaa

#49000
b100111000100 aaaaa

#50000
b100111110110 aaaaa

#51000
b101000101000 aaaaa

#52000
b101001011010 aaaaa

#53000
b101010001100 aaaaa

#54000
b101010111110 aaaaa

#55000
b101011110000 aaaaa

#56000
b101100100010 aaaaa

#57000
b101101010100 aaaaa

#58000
b101110000110 aaaaa

#59000
b101110111000 aaaaa

#60000
b101111101010 aaaaa

#61000
b110000011100 aaaaa

#62000
b110001001110 aaaaa

#63000
b110010000000 aaaaa

#64000
b110010110010 aaaaa

#65000
b110011100100 aaaaa

#66000
b110100010110 aaaaa

#67000
b110101001000 aaaaa

#68000
b110101111010 aaaaa

#69000
b110110101100 aaaaa

#70000
b110111011110 aaaaa

#71000
b111000010000 aaaaa

#72000
b111001000010 aaaaa

#73000
b111001110100 aaaaa

#74000
b111010100110 aaaaa

#75000
b111011011000 aaaaa

#76000
b111100001010 aaaaa

#77000
b111100111100 aaaaa

#78000
b111101101110 aaaaa

#79000
b111110100000 aaaaa

#80000
b111111010010 aaaaa

#81000
b1000000000100 aaaaa

#82000
b1000000110110 aaaaa

#83000
b1000001101000 aaaaa

#84000
b1000010011010 aaaaa

#85000
b1000011001100 aaaaa
b11100001000 aaaak
b1111101000 aaaal

#86000
b1000011111110 aaaaa

#87000
b1000100110000 aaaaa

#88000
b1000101100010 aaaaa

#89000
b1000110010100 aaaaa

#90000
b1000111000110 aaaaa

#91000
b1000111111000 aaaaa

#92000
b1001000101010 aaaaa

#93000
b1001001011100 aaaaa

#94000
b1001010001110 aaaaa

#95000
b1001011000000 aaaaa

#96000
b1001011110010 aaaaa

#97000
b1001100100100 aaaaa

#98000
b1001101010110 aaaaa

#99000
b1001110001000 aaaaa

#100000
b110010 aaaaf

#102000
1aaaae

#103000
b10000000 aaaag

#104000
0aaaae
b0 aaaaf

#105000
b11100001000 aaaaj
1aaaap
1aaaas
1aaaav

#3000105000
b10001001100 aaaai
1aaaar
1aaaau

#6000105000
1aaaad
b10001001100 aaaah
1aaaaq
1aaaat

#20000104000
1aaaae
b110010 aaaaf

#20000105000
b0 aaaag

#20000106000
0aaaae
b0 aaaaf

#31000106000
1aaaab

#42000106000
b1001101010110 aaaaa

#42000107000
b1001100100100 aaaaa

#42000108000
b1001011110010 aaaaa

#42000109000
b1001011000000 aaaaa

#42000110000
b1001010001110 aaaaa

#42000111000
b1001001011100 aaaaa

#42000112000
b1001000101010 aaaaa

#42000113000
b1000111111000 aaaaa

#42000114000
b1000111000110 aaaaa

#42000115000
b1000110010100 aaaaa

#42000116000
b1000101100010 aaaaa

#42000117000
b1000100110000 aaaaa

#42000118000
b1000011111110 aaaaa

#42000119000
b1000011001100 aaaaa

#42000120000
b1000010011010 aaaaa

#42000121000
b1000001101000 aaaaa

#42000122000
b1000000110110 aaaaa
b0 aaaak
b0 aaaal

#42000123000
b1000000000100 aaaaa
b0 aaaah
0aaaap
0aaaaq
0aaaat

#42000124000
b111111010010 aaaaa

#42000125000
b111110100000 aaaaa

#42000126000
b111101101110 aaaaa

#42000127000
b111100111100 aaaaa

#42000128000
b111100001010 aaaaa

#42000129000
b111011011000 aaaaa

#42000130000
b111010100110 aaaaa

#42000131000
b111001110100 aaaaa

#42000132000
b111001000010 aaaaa

#42000133000
b111000010000 aaaaa

#42000134000
b110111011110 aaaaa

#42000135000
b110110101100 aaaaa

#42000136000
b110101111010 aaaaa

#42000137000
b110101001000 aaaaa

#42000138000
b110100010110 aaaaa

#42000139000
b110011100100 aaaaa

#42000140000
b110010110010 aaaaa

#42000141000
b110010000000 aaaaa

#42000142000
b110001001110 aaaaa

#42000143000
b110000011100 aaaaa

#42000144000
b101111101010 aaaaa

#42000145000
b101110111000 aaaaa

#42000146000
b101110000110 aaaaa

#42000147000
b101101010100 aaaaa

#42000148000
b101100100010 aaaaa

#42000149000
b101011110000 aaaaa

#42000150000
b101010111110 aaaaa

#42000151000
b101010001100 aaaaa

#42000152000
b101001011010 aaaaa

#42000153000
b101000101000 aaaaa

#42000154000
b100111110110 aaaaa

#42000155000
b100111000100 aaaaa

#42000156000
b100110010010 aaaaa

#42000157000
b100101100000 aaaaa

#42000158000
b100100101110 aaaaa

#42000159000
b100011111100 aaaaa

#42000160000
b100011001010 aaaaa

#42000161000
b100010011000 aaaaa

#42000162000
b100001100110 aaaaa

#42000163000
b100000110100 aaaaa

#42000164000
b100000000010 aaaaa

#42000165000
b11111010000 aaaaa

#42000166000
b11110011110 aaaaa

#42000167000
b11101101100 aaaaa

#42000168000
b11100111010 aaaaa

#42000169000
b11100001000 aaaaa

#42000170000
b11011010110 aaaaa

#42000171000
b11010100100 aaaaa

#42000172000
b11001110010 aaaaa

#42000173000
b11001000000 aaaaa

#42000174000
b11000001110 aaaaa

#42000175000
b10111011100 aaaaa

#42000176000
b10110101010 aaaaa

#42000177000
b10101111000 aaaaa

#42000178000
b10101000110 aaaaa

#42000179000
b10100010100 aaaaa

#42000180000
b10011100010 aaaaa

#42000181000
b10010110000 aaaaa

#42000182000
b10001111110 aaaaa

#42000183000
b10001001100 aaaaa

#42000184000
b10000011010 aaaaa

#42000185000
b1111101000 aaaaa

#42000186000
b1110110110 aaaaa

#42000187000
b1110000100 aaaaa

#42000188000
b1101010010 aaaaa

#42000189000
b1100100000 aaaaa

#42000190000
b1011101110 aaaaa

#42000191000
b1010111100 aaaaa

#42000192000
b1010001010 aaaaa

#42000193000
b1001011000 aaaaa

#42000194000
b1000100110 aaaaa

#42000195000
b111110100 aaaaa

#42000196000
b111000010 aaaaa

#42000197000
b110010000 aaaaa

#42000198000
b101011110 aaaaa

#42000199000
b100101100 aaaaa

#42000200000
b11111010 aaaaa

#42000201000
b11001000 aaaaa

#42000202000
b10010110 aaaaa

#42000203000
b1100100 aaaaa

#42000204000
b110010 aaaaa

#42000205000
b0 aaaaa

#42500123000
b0 aaaai
0aaaar
0aaaau

#43000123000
b0 aaaaj
0aaaas
0aaaav

#52000206000
b110010 aaaaa

#52000207000
b1100100 aaaaa

#52000208000
b10010110 aaaaa

#52000209000
b11001000 aaaaa

#52000210000
b11111010 aaaaa

#52000211000
b100101100 aaaaa

#52000212000
b101011110 aaaaa

#52000213000
b110010000 aaaaa

#52000214000
b111000010 aaaaa

#52000215000
b111110100 aaaaa

#52000216000
b1000100110 aaaaa

#52000217000
b1001011000 aaaaa

#52000218000
b1010001010 aaaaa

#52000219000
b1010111100 aaaaa

#52000220000
b1011101110 aaaaa

#52000221000
b1100100000 aaaaa

#52000222000
b1101010010 aaaaa

#52000223000
b1110000100 aaaaa

#52000224000
b1110110110 aaaaa

#52000225000
b1111101000 aaaaa

#52000226000
b10000011010 aaaaa

#52000227000
b10001001100 aaaaa

#52000228000
b10001111110 aaaaa

#52000229000
b10010110000 aaaaa

#52000230000
b10011100010 aaaaa

#52000231000
b10100010100 aaaaa

#52000232000
b10101000110 aaaaa

#52000233000
b10101111000 aaaaa

#52000234000
b10110101010 aaaaa

#52000235000
b10111011100 aaaaa

#52000236000
b11000001110 aaaaa

#52000237000
b11001000000 aaaaa

#52000238000
b11001110010 aaaaa

#52000239000
b11010100100 aaaaa

#52000240000
b11011010110 aaaaa

#52000241000
b11100001000 aaaaa

#52000242000
b11100111010 aaaaa

#52000243000
b11101101100 aaaaa

#52000244000
b11110011110 aaaaa

#52000245000
b11111010000 aaaaa

#52000246000
b100000000010 aaaaa

#52000247000
b100000110100 aaaaa

#52000248000
b100001100110 aaaaa

#52000249000
b100010011000 aaaaa

#52000250000
b100011001010 aaaaa

#52000251000
b100011111100 aaaaa

#52000252000
b100100101110 aaaaa

#52000253000
b100101100000 aaaaa

#52000254000
b100110010010 aaaaa

#52000255000
b100111000100 aaaaa

#52000256000
b100111110110 aaaaa

#52000257000
b101000101000 aaaaa

#52000258000
b101001011010 aaaaa

#52000259000
b101010001100 aaaaa

#52000260000
b101010111110 aaaaa

#52000261000
b101011110000 aaaaa

#52000262000
b101100100010 aaaaa

#52000263000
b101101010100 aaaaa

#52000264000
b101110000110 aaaaa

#52000265000
b101110111000 aaaaa

#52000266000
b101111101010 aaaaa

#52000267000
b110000011100 aaaaa

#52000268000
b110001001110 aaaaa

#52000269000
b110010000000 aaaaa

#52000270000
b110010110010 aaaaa

#52000271000
b110011100100 aaaaa

#52000272000
b110100010110 aaaaa

#52000273000
b110101001000 aaaaa

#52000274000
b110101111010 aaaaa

#52000275000
b110110101100 aaaaa

#52000276000
b110111011110 aaaaa

#52000277000
b111000010000 aaaaa

#52000278000
b111001000010 aaaaa

#52000279000
b111001110100 aaaaa

#52000280000
b111010100110 aaaaa

#52000281000
b111011011000 aaaaa

#52000282000
b111100001010 aaaaa

#52000283000
b111100111100 aaaaa

#52000284000
b111101101110 aaaaa

#52000285000
b111110100000 aaaaa

#52000286000
b111111010010 aaaaa

#52000287000
b1000000000100 aaaaa

#52000288000
b1000000110110 aaaaa

#52000289000
b1000001101000 aaaaa

#52000290000
b1000010011010 aaaaa

#52000291000
b1000011001100 aaaaa
0aaaad
b11100001000 aaaak
b1111101000 aaaal

#52000292000
b1000011111110 aaaaa

#52000293000
b1000100110000 aaaaa

#52000294000
b1000101100010 aaaaa

#52000295000
b1000110010100 aaaaa

#52000296000
b1000111000110 aaaaa

#52000297000
b1000111111000 aaaaa

#52000298000
b1001000101010 aaaaa

#52000299000
b1001001011100 aaaaa

#52000300000
b1001010001110 aaaaa

#52000301000
b1001011000000 aaaaa

#52000302000
b1001011110010 aaaaa

#52000303000
b1001100100100 aaaaa

#52000304000
b1001101010110 aaaaa

#52000305000
b1001110001000 aaaaa

#52000306000
b101111 aaaaf
b10 aaaao

#52000307000
1aaaae

#52000308000
b100 aaaag

#52000309000
0aaaae
b0 aaaaf
b0 aaaao

#52000310000
b110010 aaaaf

#52000311000
1aaaae

#52000312000
b10000000 aaaag

#52000313000
0aaaae
b0 aaaaf

#52000314000
b11100001000 aaaaj
1aaaap
1aaaas
1aaaav

#55000314000
b10001001100 aaaai
1aaaar
1aaaau

#58000314000
1aaaad
b10001001100 aaaah
1aaaaq
1aaaat

#72000313000
1aaaae
b110010 aaaaf

#72000314000
b0 aaaag

#72000315000
0aaaae
b0 aaaaf

#72000316000
b0 aaaah
0aaaap
0aaaaq
0aaaat

#72500316000
b0 aaaai
0aaaar
0aaaau

#73000316000
b0 aaaaj
0aaaas
0aaaav

#83000315000
b110010 aaaaf

#83000316000
1aaaae

#83000317000
b10000000 aaaag

#83000318000
0aaaae
b0 aaaaf

#83000319000
b11100001000 aaaaj
1aaaap
1aaaas
1aaaav

#86000319000
b10001001100 aaaai
1aaaar
1aaaau

#89000319000
b10001001100 aaaah
1aaaaq
1aaaat

