models/pmicJEDEC301-2-1.vcd
$date
     Mar 27, 2024       14:37:56
$end

$version
 SystemC 3.0.0_pub_rev_20231124-Accellera --- Mar 17 2024 14:22:01
$end

$timescale
     1 ps
$end

$scope module SystemC $end
$var wire    1  aaaaa  vren       $end
$var wire    1  aaaab  gsi_n       $end
$var wire    1  aaaac  pwrgd       $end
$var wire    1  aaaad  wrb       $end
$var wire    8  aaaae  addr_in [7:0]  $end
$var wire    8  aaaaf  data_in [7:0]  $end
$var wire   32  aaaag  railA_out [31:0]  $end
$var wire   32  aaaah  railB_out [31:0]  $end
$var wire   32  aaaai  railC_out [31:0]  $end
$var wire   32  aaaaj  v1p8_out [31:0]  $end
$var wire   32  aaaak  v1p0_out [31:0]  $end
$var wire    8  aaaal  data_out [7:0]  $end
$upscope $end
$enddefinitions  $end

$comment
All initial values are dumped below at time 0 sec = 0 timescale units.
$end

$dumpvars
0aaaaa
0aaaab
0aaaac
0aaaad
b0 aaaae
b0 aaaaf
b0 aaaag
b0 aaaah
b0 aaaai
b0 aaaaj
b0 aaaak
b0 aaaal
$end

#84000
b110010 aaaaj

#85000
b1100100 aaaaj

#86000
b10010110 aaaaj

#87000
b11001000 aaaaj

#88000
b11111010 aaaaj

#89000
b100101100 aaaaj

#90000
b101011110 aaaaj

#91000
b110010000 aaaaj

#92000
b111000010 aaaaj

#93000
b111110100 aaaaj

#94000
b1000100110 aaaaj

#95000
b1001011000 aaaaj

#96000
b1010001010 aaaaj

#97000
b1010111100 aaaaj

#98000
b1011101110 aaaaj

#99000
b1100100000 aaaaj

#100000
b110010 aaaae
b1101010010 aaaaj

#101000
1aaaad
b1110000100 aaaaj

#102000
b10000000 aaaaf
b1110110110 aaaaj

#103000
0aaaad
b1111101000 aaaaj
b10000000 aaaal

#104000
b10000011010 aaaaj

#105000
b10001001100 aaaaj

#106000
b10001111110 aaaaj

#107000
b10010110000 aaaaj

#108000
b10011100010 aaaaj

#109000
b10100010100 aaaaj

#110000
b10101000110 aaaaj

#111000
b10101111000 aaaaj

#112000
b10110101010 aaaaj

#113000
b10111011100 aaaaj

#114000
b11000001110 aaaaj

#115000
b11001000000 aaaaj

#116000
b11001110010 aaaaj

#117000
b11010100100 aaaaj

#118000
b11011010110 aaaaj

#119000
b11100001000 aaaaj
b110010 aaaak

#120000
b1100100 aaaak

#121000
b10010110 aaaak

#122000
b11001000 aaaak

#123000
b11111010 aaaak

#124000
b100101100 aaaak

#125000
b101011110 aaaak

#126000
b110010000 aaaak

#127000
b111000010 aaaak

#128000
b111110100 aaaak

#129000
b1000100110 aaaak

#130000
b1001011000 aaaak

#131000
b1010001010 aaaak

#132000
b1010111100 aaaak

#133000
b1011101110 aaaak

#134000
b1100100000 aaaak

#135000
b1101010010 aaaak

#136000
b1110000100 aaaak

#137000
b1110110110 aaaak

#138000
b1111101000 aaaak

#141000
b1110000100 aaaai

#1000141000
b11100001000 aaaai

#2000141000
b1000100110 aaaah

#3000141000
b10001001100 aaaah

#4000141000
b1000100110 aaaag

#5000141000
b10001001100 aaaag

#6000141000
1aaaac

#10000103000
1aaaad

#10000104000
b0 aaaaf
b0 aaaag
b0 aaaah
b0 aaaai

#10000105000
0aaaad
b0 aaaal

#10000106000
0aaaac

